STAT 209: Lab 10
…
CalData_OBP_SLG_OPS <- CalData_statsums %>%
  group_by(yearID)%>%
  summarize(
    OBP = (H + BB + HBP) / (AB + BB + HBP + SF),
    SLG = (1 * X1B + 2 * X2B + 3 * X3B + 4 * HR) / AB,
    OPS = OBP + SLG,
    name = "Cal Ripken")

CalData_OBP_SLG_OPS

## # A tibble: 21 x 5
##    yearID   OBP   SLG   OPS name      
##     <int> <dbl> <dbl> <dbl> <chr>     
##  1   1981 0.15  0.128 0.278 Cal Ripken
##  2   1982 0.317 0.405 0.722 Cal Ripken
##  3   1983 0.371 0.440 0.811 Cal Ripken
##  4   1984 0.374 0.431 0.805 Cal Ripken
##  5   1985 0.347 0.403 0.750 Cal Ripken
##  6   1986 0.355 0.402 0.757 Cal Ripken
##  7   1987 0.333 0.381 0.715 Cal Ripken
##  8   1988 0.372 0.384 0.756 Cal Ripken
##  9   1989 0.317 0.354 0.672 Cal Ripken
## 10   1990 0.341 0.355 0.696 Cal Ripken
## #  with 11 more rows
…
